<?xml version="1.0" encoding="UTF-8"?>
<svg version="1.1" viewBox="0 0 64 64" xmlns="http://www.w3.org/2000/svg" xmlns:xlink="http://www.w3.org/1999/xlink">
    <defs>
        <linearGradient id="linearGradient4178" x1="434.16" x2="397.23" y1="548.89" y2="495.31" gradientTransform="matrix(1 0 0 .99967 -384.57 -483.62)" gradientUnits="userSpaceOnUse">
            <stop stop-color="#127bdc" offset="0"/>
            <stop stop-color="#64b4f4" offset="1"/>
        </linearGradient>
        <linearGradient id="linearGradient4217" x1="390.57" x2="442.57" y1="498.3" y2="498.3" gradientTransform="translate(0,3)" gradientUnits="userSpaceOnUse">
            <stop stop-color="#fff" offset="0"/>
            <stop stop-color="#fff" stop-opacity=".4876" offset="1"/>
        </linearGradient>
        <linearGradient id="linearGradient4225" x1="396.57" x2="426.57" y1="498.8" y2="511.8" gradientTransform="translate(0,1)" gradientUnits="userSpaceOnUse">
            <stop stop-color="#f5f5f5" offset="0"/>
            <stop stop-color="#f9f9f9" offset="1"/>
        </linearGradient>
        <linearGradient id="linearGradient4297" x1="388.57" x2="416.57" y1="487.8" y2="507.8" gradientUnits="userSpaceOnUse">
            <stop stop-color="#1d5e8c" offset="0"/>
            <stop stop-color="#2675a7" offset="1"/>
        </linearGradient>
        <linearGradient id="linearGradient4399" x1="443.57" x2="443.57" y1="510.8" y2="526.8" gradientTransform="translate(-23,5)" gradientUnits="userSpaceOnUse">
            <stop offset="0"/>
            <stop stop-opacity="0" offset="1"/>
        </linearGradient>
    </defs>
    <g transform="translate(-384.57 -483.8)">
        <path d="m388.57 489.8v5 22c0 0.55373 0.446 1 1 1h54c0.55399 0 1-0.44627 1-1v-21.99c0-3e-3 -2e-3 -6e-3 -2e-3 -0.01h2e-3v-1h-28l-4-4h-24z" fill="url(#linearGradient4297)"/>
        <rect x="390.57" y="498.8" width="52" height="15" rx="1" ry="1" color="#000000" color-rendering="auto" fill="url(#linearGradient4225)" image-rendering="auto" shape-rendering="auto" solid-color="#000000" style="isolation:auto;mix-blend-mode:normal"/>
        <path transform="translate(384.57 483.8)" d="m26 24-4 4h-19v1h0.0019531c-5e-5 4e-3 -0.0019531 0.008019-0.0019531 0.011719v26.988 1c0 0.554 0.44599 1 1 1h56c0.55401 0 1-0.446 1-1v-1-26.988-0.011719-5h-35z" fill="url(#linearGradient4178)"/>
        <path d="m387.57 511.8v1h20l3-5-4 4z" fill="#fff" fill-rule="evenodd" opacity=".3"/>
        <path transform="translate(384.57 483.8)" d="m28 6 3 5h2 27v-1h-27-1z" fill="#fff" fill-rule="evenodd" opacity=".3"/>
        <path d="m391.57 498.8c-0.55401 0-1 0.446-1 1v1c0-0.554 0.44599-1 1-1h50c0.55401 0 1 0.446 1 1v-1c0-0.554-0.44599-1-1-1h-50z" color="#000000" color-rendering="auto" fill="url(#linearGradient4217)" image-rendering="auto" opacity=".85" shape-rendering="auto" solid-color="#000000" style="isolation:auto;mix-blend-mode:normal"/>
        <path d="m388.57 541.8c-0.55401 0-1-0.446-1-1v-1c0 0.554 0.44599 1 1 1h56c0.55401 0 1-0.446 1-1v1c0 0.554-0.44599 1-1 1z" color="#000000" color-rendering="auto" image-rendering="auto" opacity=".3" shape-rendering="auto" solid-color="#000000" style="isolation:auto;mix-blend-mode:normal"/>
        <path d="m387.57 512.8h20l3-5h35v33h-30z" fill="url(#linearGradient4399)" fill-rule="evenodd" opacity=".109"/>
    </g>
</svg>
