<?xml version="1.0" encoding="UTF-8"?>
<svg version="1.1" viewBox="0 0 48 48" xmlns="http://www.w3.org/2000/svg" xmlns:xlink="http://www.w3.org/1999/xlink">
    <defs>
        <linearGradient id="b" x1="32" x2="-8" y1="-6" y2="32" gradientTransform="matrix(0,-1,1,0,12,36)" gradientUnits="userSpaceOnUse">
            <stop stop-color="#d8dcde" offset="0"/>
            <stop stop-color="#f9fafb" offset="1"/>
        </linearGradient>
        <linearGradient id="c" x2="0" y1="8" y2="4" gradientTransform="translate(1)" gradientUnits="userSpaceOnUse">
            <stop stop-color="#2f3943" offset="0"/>
            <stop stop-color="#4d5662" offset="1"/>
        </linearGradient>
        <linearGradient id="d" x2="-.55932" y1="8" y2="7.9153" gradientTransform="translate(-22)" gradientUnits="userSpaceOnUse" xlink:href="#c"/>
        <linearGradient id="e" x1="8" x2="19" y1="8" y2="19" gradientUnits="userSpaceOnUse">
            <stop offset="0"/>
            <stop stop-opacity="0" offset="1"/>
        </linearGradient>
        <linearGradient id="f" x1="8" x2="19" y1="8" y2="19" gradientTransform="matrix(0,1,1,0,0,0)" gradientUnits="userSpaceOnUse" xlink:href="#e"/>
        <linearGradient id="linearGradient4618" x1="29.06" x2="29.01" y1="13.634" y2="1.499" gradientTransform="matrix(-.00282 .99376 .65925 -.00423 4.893 .177)" gradientUnits="userSpaceOnUse">
            <stop stop-color="#f67400" offset="0"/>
            <stop stop-color="#fdbc4b" offset="1"/>
        </linearGradient>
        <linearGradient id="linearGradient4620" x2="0" y1="8" y2="4" gradientTransform="translate(-47)" gradientUnits="userSpaceOnUse" xlink:href="#c"/>
        <linearGradient id="linearGradient4622" x1="8" x2="19" y1="8" y2="19" gradientTransform="matrix(0,1,1,0,0,25)" gradientUnits="userSpaceOnUse" xlink:href="#e"/>
        <style type="text/css">.ColorScheme-Text {
        color:#4d4d4d;
      }</style>
        <style type="text/css">.ColorScheme-Text {
        color:#4d4d4d;
      }</style>
        <style type="text/css">.ColorScheme-Text {
        color:#4d4d4d;
      }</style>
    </defs>
    <path d="m13 44h31v-40h-31z" fill="url(#b)" stroke-linejoin="bevel" stroke-width="2"/>
    <path d="m6 44v-40h8v40z" fill="url(#linearGradient4618)" stroke-linejoin="bevel" stroke-width="2"/>
    <rect transform="rotate(-90)" x="-44" y="13" width="40" height="1" fill="#dd7107" stroke-linecap="round" stroke-linejoin="bevel" stroke-width="2"/>
    <path d="m7 7v9h1v-9h-1zm0 25v9h1v-9h-1z" fill="#f7800c" stroke-linecap="round" stroke-linejoin="bevel" stroke-width="2"/>
    <rect transform="rotate(-90)" x="-40" y="4" width="7" height="4" fill="url(#linearGradient4620)" stroke-linecap="round" stroke-linejoin="bevel" stroke-width="2"/>
    <rect transform="rotate(-90)" x="-15" y="4" width="7" height="4" fill="url(#d)" stroke-linecap="round" stroke-linejoin="bevel" stroke-width="2"/>
    <path d="m8 33 6 6v5h-2l-4-4z" fill="url(#linearGradient4622)" fill-rule="evenodd" opacity=".2"/>
    <path d="m8 8 6 6v7l-6-6z" fill="url(#f)" fill-rule="evenodd" opacity=".2"/>
    <path d="m18 8v6h6v-6h-6zm1 1h4v4h-4v-4z" fill="#dd7107"/>
    <path d="m18 34v6h6v-6h-6zm1 1h4v4h-4v-4z" fill="#da4453"/>
    <path d="m18 21v6h6v-6h-6zm1 1h4v4h-4v-4z" fill="#27ae60"/>
    <path class="ColorScheme-Text" d="m40.637 32.439-7.6367 7.5605-2.9102-2.8809-0.72656 0.7207 2.9082 2.8789 0.72852 0.7207 1.0898-1.0801 7.2734-7.1992-0.72656-0.7207z" color="#4d4d4d" fill="#4d4d4d" fill-opacity=".86667"/>
</svg>
